GA6
…
metadata <- read_tsv(file = "/fs/ess/PAS2880/users/bateman139/garrigos-data/metadata.tsv")

Rows: 22 Columns: 3
── Column specification ────────────────────────────────────────────────────────
Delimiter: "\t"
chr (3): sample_id, time, treatment

ℹ Use `spec()` to retrieve the full column specification for this data.
ℹ Specify the column types or set `show_col_types = FALSE` to quiet this message.

metadata

# A tibble: 22 × 3
   sample_id   time  treatment  
   <chr>       <chr> <chr>      
 1 ERR10802882 10dpi cathemerium
 2 ERR10802875 10dpi cathemerium
 3 ERR10802879 10dpi cathemerium
 4 ERR10802883 10dpi cathemerium
 5 ERR10802878 10dpi control    
 6 ERR10802884 10dpi control    
 7 ERR10802877 10dpi control    
 8 ERR10802881 10dpi control    
 9 ERR10802876 10dpi relictum   
10 ERR10802880 10dpi relictum   
# ℹ 12 more rows
…
midwest_datasets |>
  filter(poptotal > 30000, popdensity > 800)

# A tibble: 234 × 28
     PID county  state  area poptotal popdensity popwhite popblack popamerindian
   <int> <chr>   <chr> <dbl>    <int>      <dbl>    <int>    <int>         <int>
 1   561 ADAMS   IL    0.052    66090      1271.    63917     1702            98
 2   564 BOONE   IL    0.017    30806      1812.    29344      127            46
 3   570 CHAMPA… IL    0.058   173025      2983.   146506    16559           331
 4   571 CHRIST… IL    0.042    34418       819.    34176       82            51
 5   574 CLINTON IL    0.029    33944      1170.    32688     1021            48
 6   575 COLES   IL    0.03     51644      1721.    50177      925            92
 7   576 COOK    IL    0.058  5105067     88018.  3204947  1317147         10289
 8   579 DE KALB IL    0.038    77932      2051.    72968     2069           123
 9   582 DU PAGE IL    0.02    781666     39083.   714905    15462           962
10   585 EFFING… IL    0.028    31704      1132.    31523       12            45
# ℹ 224 more rows
# ℹ 19 more variables: popasian <int>, popother <int>, percwhite <dbl>,
#   percblack <dbl>, percamerindan <dbl>, percasian <dbl>, percother <dbl>,
#   popadults <int>, perchsd <dbl>, percollege <dbl>, percprof <dbl>,
#   poppovertyknown <int>, percpovertyknown <dbl>, percbelowpoverty <dbl>,
#   percchildbelowpovert <dbl>, percadultpoverty <dbl>,
#   percelderlypoverty <dbl>, inmetro <int>, category <chr>

Select first 11 variables of the dataset. Create a new column named asian_ameri in midwest_datasets object by dividing popasian by popamerindian and sort asian_ameri in descending order. Save this output as new_dataset object

 new_dataset <- midwest_datasets |>
  filter(poptotal > 30000, popdensity > 800) |>
  select(1:11) |>
  mutate(asian_ameri = popasian / popamerindian) |>
  arrange(desc(asian_ameri))
 new_dataset

# A tibble: 234 × 12
     PID county  state  area poptotal popdensity popwhite popblack popamerindian
   <int> <chr>   <chr> <dbl>    <int>      <dbl>    <int>    <int>         <int>
 1   582 DU PAGE IL    0.02    781666     39083.   714905    15462           962
 2   570 CHAMPA… IL    0.058   173025      2983.   146506    16559           331
 3   599 JACKSON IL    0.036    61067      1696.    51991     6342           109
 4   576 COOK    IL    0.058  5105067     88018.  3204947  1317147         10289
 5   741 TIPPEC… IN    0.03    130598      4353.   122013     2660           320
 6   579 DE KALB IL    0.038    77932      2051.    72968     2069           123
 7   715 MONROE  IN    0.024   108978      4541.   102752     2835           216
 8   615 MCDONO… IL    0.034    35244      1037.    32992     1254            65
 9  1277 WASHTE… MI    0.041   282937      6901.   236390    31720          1076
10   609 LAKE    IL    0.028   516418     18444.   450666    34771          1198
# ℹ 224 more rows
# ℹ 3 more variables: popasian <int>, popother <int>, asian_ameri <dbl>
…
